{
  "version": "0.3.14-fixed",
  "steps": [
    {
      "tag": "UpdateField",
      "model": "Auction",
      "field": "winnerBidId",
      "arity": "Optional"
    },
    {
      "tag": "UpdateField",
      "model": "Auction",
      "field": "winnerBid",
      "arity": "Optional"
    }
  ]
}